<svg height="<%= height %>" viewBox="0 0 317.85257 159.10257" version="1.1" id="svg4863" inkscape:version="1.1.1 (3bf5ae0d25, 2021-09-20)" sodipodi:docname="DWDEFRT.svg" xmlns:inkscape="http://www.inkscape.org/namespaces/inkscape" xmlns:sodipodi="http://sodipodi.sourceforge.net/DTD/sodipodi-0.dtd" xmlns="http://www.w3.org/2000/svg" xmlns:svg="http://www.w3.org/2000/svg">
  <title>House of Commons</title>
  <sodipodi:namedview id="namedview4865" pagecolor="#ffffff" bordercolor="#666666" borderopacity="1.0" inkscape:pageshadow="2" inkscape:pageopacity="0.0" inkscape:pagecheckerboard="0" inkscape:document-units="mm" showgrid="false" inkscape:zoom="0.69664703" inkscape:cx="460.77854" inkscape:cy="298.57301" inkscape:window-width="1920" inkscape:window-height="986" inkscape:window-x="-11" inkscape:window-y="-11" inkscape:window-maximized="1" inkscape:current-layer="layer1"/>
  <defs id="defs4860"/>
  <g inkscape:label="Layer 1" inkscape:groupmode="layer" id="layer1" transform="translate(86.100171,-24.323665)">
    <rect style="fill:#006e46;fill-opacity:1;stroke:#005f46;stroke-width:0.352564;stroke-opacity:1" id="rect1223" width="317.5" height="158.75" x="-85.923889" y="24.499947"/>
    <g id="layer1-2" transform="matrix(0.77970332,0,0,0.77970332,-66.424026,11.041524)">
      <path style="fill:#f8dd01;fill-opacity:1;fill-rule:nonzero;stroke:none;stroke-width:1.5875" d="m 232.89432,49.621942 -1.61851,0.830958 v 0.006 c 1.87275,3.305256 2.36265,7.683282 1.20303,12.067512 -1.92237,-1.420068 -3.25562,-3.547074 -3.90674,-6.02754 l -1.62471,0.837156 v 0.006 c -0.63872,2.406072 -1.48208,4.799724 -2.53627,7.143768 -1.0418,2.33784 -2.26344,4.545456 -3.62149,6.61665 l -0.0246,0.0558 0.45888,1.730124 c 1.6247,-0.837156 3.46025,-1.302246 5.41982,-1.302246 0.65733,0 1.30225,0.0498 1.92857,0.15504 -1.65572,3.906738 -5.53765,6.647658 -10.0707,6.647658 -4.24781,0 -7.9251,-2.418456 -9.73584,-5.946924 1.28984,-0.59532 2.28823,-1.74873 2.61689,-3.230814 0.4527,-2.071188 -0.86197,-3.038568 -0.40926,-5.09736 0.45888,-2.071188 2.50527,-3.37344 4.58266,-2.920752 1.61231,0.35346 2.75953,1.655712 2.98277,3.193602 1.10979,-0.669708 1.95935,-1.773516 2.257,-3.137772 0.5829,-2.641704 -1.0914,-5.252394 -3.73931,-5.829102 -1.69291,-0.37206 -3.36103,0.17364 -4.50825,1.296042 0.68834,-1.035594 1.20303,-2.207616 1.48829,-3.485058 0.68833,-3.137802 -0.14262,-6.275598 -2.01538,-8.71266 -2.73472,1.43247 -4.80591,3.925344 -5.50664,7.075536 -0.27906,1.271244 -0.31008,2.548686 -0.11784,3.776514 -0.5643,-1.49448 -1.85415,-2.691306 -3.54087,-3.057174 -2.6541,-0.5829 -5.2772,1.091406 -5.86011,3.726906 -0.30384,1.364256 0,2.722314 0.73174,3.78891 0.84956,-1.296042 2.43706,-2.002974 4.04937,-1.649508 2.07739,0.4527 3.39204,2.492868 2.93315,4.557864 -0.4527,2.06499 -2.05879,2.393646 -2.51768,4.458636 -0.26664,1.221636 -0.0312,2.437062 0.57048,3.423048 0,0 0.0992,0.14886 0.25422,0.40308 -2.15181,1.668114 -4.85551,2.660304 -7.79487,2.660304 -7.01353,0 -12.7062,-5.661672 -12.7062,-12.64419 v -1.029396 c 4.00595,0.63252 7.55922,2.6355 10.15752,5.50044 l 1.35813,-1.345656 v -15.13086 l -1.38286,-1.376658 c -2.59209,2.858742 -6.13916,4.849314 -10.13271,5.481834 v -0.0126 c 0,-5.494242 3.77031,-10.11411 8.87387,-11.44116 l -1.39526,-1.395246 c -3.77031,-0.27288 -7.56543,-0.40926 -11.40396,-0.40926 -3.83232,0 -7.63364,0.13644 -11.40395,0.40926 l -1.40147,1.395264 c 5.10977,1.32705 8.88008,5.94072 8.88008,11.44116 v 0.0126 c -3.99355,-0.632538 -7.53442,-2.62311 -10.13271,-5.481852 l -1.38286,1.376658 v 15.13086 l 1.36425,1.345656 c 2.5983,-2.86494 6.14536,-4.86792 10.15132,-5.50044 v 1.029396 c 0,6.982518 -5.68647,12.64419 -12.7062,12.64419 -2.92075,0 -5.60586,-0.979788 -7.75147,-2.623098 0.12402,-0.27288 0.21084,-0.44028 0.21084,-0.44028 0.60152,-0.985986 0.84336,-2.201412 0.57048,-3.423048 -0.4527,-2.06499 -2.05878,-2.393646 -2.51768,-4.458636 -0.45888,-2.064996 0.85577,-4.105182 2.93316,-4.557864 1.61231,-0.35346 3.20601,0.35346 4.04937,1.649508 0.72554,-1.066596 1.03559,-2.424654 0.73173,-3.78891 -0.5829,-2.6355 -3.206,-4.309818 -5.8601,-3.726906 -1.68672,0.36588 -2.97656,1.562694 -3.54087,3.057174 0.18606,-1.227828 0.16122,-2.50527 -0.11784,-3.776514 -0.69453,-3.150192 -2.77192,-5.643066 -5.50664,-7.075536 -1.87275,2.437062 -2.70371,5.574858 -2.00918,8.712648 0.28524,1.28364 0.79375,2.449464 1.48208,3.485058 -1.14101,-1.122408 -2.81533,-1.668114 -4.50205,-1.296042 -2.6541,0.57672 -4.33462,3.187398 -3.74551,5.829102 0.29766,1.364256 1.14722,2.468064 2.26343,3.13779 0.21702,-1.53789 1.36426,-2.840136 2.97036,-3.193602 2.07739,-0.4527 4.12998,0.849558 4.58887,2.920752 0.45888,2.058786 -0.86196,3.026172 -0.40308,5.09736 0.32244,1.482084 1.32705,2.6355 2.61069,3.230814 -1.80454,3.528468 -5.48803,5.946924 -9.73584,5.946924 -4.53305,0 -8.42118,-2.74092 -10.0769,-6.647658 0.63252,-0.09924 1.27745,-0.15504 1.94097,-0.15504 1.94717,0 3.78892,0.46506 5.41362,1.302246 l 0.4527,-1.73013 -0.0186,-0.0558 c -1.35803,-2.07084 -2.57966,-4.278456 -3.62146,-6.616296 -1.04799,-2.344044 -1.89135,-4.731498 -2.53627,-7.14375 v -0.006 l -1.62471,-0.83097 c -0.65112,2.480466 -1.99057,4.601268 -3.90674,6.02754 -1.15962,-4.39044 -0.66352,-8.762268 1.20303,-12.073692 l -1.62471,-0.837162 c -2.82773,0.967386 -6.65385,2.511474 -9.42578,3.739308 l 16.29048,36.407083 c 14.49833,-6.430615 30.54697,-10.002493 47.44516,-10.002493 16.8982,0 32.95303,3.571878 47.44517,10.002493 L 242.3263,53.36143 c -2.77193,-1.227834 -6.59805,-2.771922 -9.43198,-3.739308 m 7.4538,77.446438 v 5.2648 c 4.26022,0.99218 7.13134,4.63847 7.13134,9.19013 0,4.54546 -2.87112,8.19175 -7.13134,9.17773 v 5.271 c 4.26022,0.99219 7.13134,4.63228 7.13134,9.18394 0,4.55166 -2.87112,8.19795 -7.13134,9.19013 v 5.25859 c 4.26022,0.99219 7.13134,4.63848 7.13134,9.19014 0,5.35782 -3.97494,9.45059 -9.50018,9.45059 -5.55626,0 -9.5002,-4.09277 -9.5002,-9.45059 0,-4.55786 2.85254,-8.20414 7.11895,-9.19014 v -5.25859 c -4.26641,-0.99218 -7.11895,-4.63847 -7.11895,-9.19013 0,-4.55787 2.85254,-8.19795 7.11895,-9.19014 v -5.25877 c -4.26641,-0.99219 -7.11895,-4.63228 -7.11895,-9.19014 0,-4.55166 2.85254,-8.19795 7.11895,-9.18393 v -5.2648 c -4.26641,-0.98599 -7.11895,-4.63228 -7.11895,-9.19014 0,-4.55166 2.85254,-8.19795 7.11895,-9.19013 v -5.2586 c -3.49746,-0.80615 -6.04614,-3.40444 -6.8523,-6.821287 h -5.01675 V 198.24543 h -1.0976 c -2.44947,-7.32359 -6.12056,-14.08907 -10.78384,-20.04839 v -1.22163 h 4.75009 v -14.18828 h -11.87524 v 14.18828 h 2.37505 v 1.29605 c -3.08198,6.10815 -5.35781,12.83022 -6.66006,19.97397 h -0.93017 c -1.30225,-7.14375 -3.58428,-13.86582 -6.66626,-19.97397 v -1.29605 h 2.38125 v -14.18828 h -11.87525 v 14.18828 h 2.37505 v 1.29605 c -3.08198,6.10815 -5.36401,12.83022 -6.66006,19.97397 h -0.93017 c -1.30225,-7.14375 -3.58428,-13.86582 -6.66626,-19.97397 v -1.29605 h 2.37504 v -14.18828 h -11.86904 v 14.18828 h 2.37505 v 1.29605 c -3.08198,6.10815 -5.36401,12.83022 -6.66626,19.97397 h -0.93018 c -1.30224,-7.14375 -3.57807,-13.86582 -6.66006,-19.97397 v -1.29605 h 2.37506 v -14.18828 h -11.87525 v 14.18828 h 4.7501 v 1.22163 c -4.66328,5.95932 -8.33438,12.7248 -10.78384,20.04839 h -1.0976 V 96.608223 h -5.01675 c -0.81235,3.416847 -3.36724,6.008937 -6.85229,6.821287 v 5.26479 c 4.254,0.99219 7.11894,4.63228 7.11894,9.18394 0,4.55166 -2.86494,8.19795 -7.11894,9.19014 v 5.2648 c 4.254,0.98598 7.11894,4.63227 7.11894,9.18393 0,4.55166 -2.86494,8.19175 -7.11894,9.18393 v 5.271 c 4.254,0.98599 7.11894,4.63228 7.11894,9.17773 0,4.55787 -2.86494,8.19795 -7.11894,9.19014 v 5.26479 c 4.254,0.99219 7.11894,4.63848 7.11894,9.19014 0,5.35161 -3.96875,9.45058 -9.494,9.45058 -5.55624,0 -9.50639,-4.09897 -9.50639,-9.45058 0,-4.55786 2.85874,-8.20414 7.13135,-9.19014 v -5.26479 c -4.27261,-0.98598 -7.13135,-4.63227 -7.13135,-9.19014 0,-4.55166 2.85874,-8.19174 7.13135,-9.18393 v -5.25859 c -4.27261,-0.99219 -7.13135,-4.63228 -7.13135,-9.19014 0,-4.55166 2.85874,-8.19795 7.13135,-9.18393 v -5.2648 c -4.27261,-0.98599 -7.13135,-4.63228 -7.13135,-9.19014 0,-4.55166 2.85874,-8.19795 7.13135,-9.19013 v -5.2586 c -4.27261,-0.98599 -7.13135,-4.632278 -7.13135,-9.183927 0,-5.35782 3.95015,-9.456795 9.50639,-9.456795 4.67569,0 8.24136,2.939358 9.22735,7.087935 h 100.30395 c 0.97979,-4.148577 4.52686,-7.087935 9.23355,-7.087935 5.52524,0 9.50018,4.098975 9.50018,9.456795 0,4.551649 -2.87112,8.191737 -7.13134,9.183927 v 5.26479 c 4.26022,0.99219 7.13134,4.63228 7.13134,9.18394 0,4.55166 -2.87112,8.19795 -7.13134,9.19014 m -118.81445,57.50967 c -0.21702,1.079 -1.12241,1.84795 -2.32543,1.84795 -1.20303,0 -2.1022,-0.76895 -2.32545,-1.84795 -1.50068,0.74414 -2.42465,2.25102 -2.42465,4.21679 0,2.82153 1.91616,4.7253 4.75629,4.7253 2.84014,0 4.7501,-1.90377 4.7501,-4.7253 0,-1.96577 -0.91777,-3.47265 -2.43086,-4.21679 m 0,-23.63887 c -0.21702,1.079 -1.12241,1.84795 -2.32543,1.84795 -1.20303,0 -2.1022,-0.76895 -2.32545,-1.84795 -1.50068,0.74414 -2.42465,2.25102 -2.42465,4.21059 0,1.96578 0.92397,3.47886 2.42465,4.223 0.22326,-1.0852 1.12242,-1.85415 2.32545,-1.85415 1.20302,0 2.10839,0.76895 2.32543,1.85415 1.51309,-0.74414 2.43086,-2.25722 2.43086,-4.223 0,-1.95957 -0.91777,-3.46645 -2.43086,-4.21059 m 0,-23.63887 c -0.21702,1.07901 -1.12241,1.85415 -2.32543,1.85415 -1.20303,0 -2.1022,-0.77514 -2.32545,-1.85415 -1.50068,0.75034 -2.42465,2.25723 -2.42465,4.2168 0,1.95957 0.92397,3.47266 2.42465,4.2168 0.22326,-1.07901 1.12242,-1.85415 2.32545,-1.85415 1.20302,0 2.10839,0.77514 2.32543,1.85415 1.51309,-0.74414 2.43086,-2.25723 2.43086,-4.2168 0,-1.95957 -0.91777,-3.47265 -2.43086,-4.2168 m 2.43086,-43.054727 c 0,-2.83394 -1.90996,-4.7315 -4.7501,-4.7315 -2.84013,0 -4.75629,1.89756 -4.75629,4.7315 0,1.95957 0.92397,3.466449 2.42465,4.216789 0.22326,-1.079 1.12242,-1.854149 2.32545,-1.854149 1.20302,0 2.10839,0.775149 2.32543,1.854149 1.51309,-0.75034 2.43086,-2.257219 2.43086,-4.216789 m 28.50059,47.271527 h -11.87525 v 14.18208 h 11.87525 z m 0,-21.27622 h -11.87525 v 14.18208 h 11.87525 z m 0,-21.270018 h -11.87525 v 14.182078 h 11.87525 z m 21.37543,42.546238 h -11.87524 v 14.18208 h 11.87524 z m 0,-21.27622 h -11.87524 v 14.18208 h 11.87524 z m 0,-21.270018 h -11.87524 v 14.182078 h 11.87524 z m 21.38165,42.546238 h -11.87525 v 14.18208 h 11.87525 z m 0,-21.27622 h -11.87525 v 14.18208 h 11.87525 z m 0,-21.270018 h -11.87525 v 14.182078 h 11.87525 z m 21.37543,42.546238 h -11.87524 v 14.18208 h 11.87524 z m 0,-21.27622 h -11.87524 v 14.18208 h 11.87524 z m 0,-21.270018 h -11.87524 v 14.182078 h 11.87524 z m 19.05621,-0.5085 c 0.21702,-1.07901 1.11621,-1.854149 2.31924,-1.854149 1.20302,0 2.10839,0.775139 2.33163,1.854149 1.50069,-0.75035 2.42466,-2.257229 2.42466,-4.216799 0,-2.83394 -1.90996,-4.7315 -4.75009,-4.7315 -2.84634,0 -4.7563,1.89756 -4.7563,4.7315 0,1.95957 0.91777,3.466449 2.43086,4.216799 m 4.65087,86.115668 c -0.22326,1.079 -1.12861,1.84795 -2.33163,1.84795 -1.20303,0 -2.1022,-0.76895 -2.31924,-1.84795 -1.51309,0.74414 -2.43086,2.25102 -2.43086,4.2168 0,2.82153 1.90996,4.72529 4.7563,4.72529 2.84013,0 4.75009,-1.90376 4.75009,-4.72529 0,-1.96578 -0.92397,-3.47266 -2.42466,-4.2168 m 0,-23.63887 c -0.22326,1.07901 -1.12861,1.84795 -2.33163,1.84795 -1.20303,0 -2.1022,-0.76894 -2.31924,-1.84795 -1.51309,0.74415 -2.43086,2.25103 -2.43086,4.2106 0,1.96577 0.91777,3.47886 2.43086,4.223 0.21702,-1.08521 1.11621,-1.85415 2.31924,-1.85415 1.20302,0 2.10839,0.76894 2.33163,1.85415 1.50069,-0.74414 2.42466,-2.25723 2.42466,-4.223 0,-1.95957 -0.92397,-3.46645 -2.42466,-4.2106 m 0,-23.63886 c -0.22326,1.079 -1.12861,1.85415 -2.33163,1.85415 -1.20303,0 -2.1022,-0.77515 -2.31924,-1.85415 -1.51309,0.75034 -2.43086,2.25722 -2.43086,4.21679 0,1.95957 0.91777,3.47266 2.43086,4.2168 0.21702,-1.07901 1.11621,-1.85415 2.31924,-1.85415 1.20302,0 2.10839,0.77514 2.33163,1.85415 1.50069,-0.74414 2.42466,-2.25723 2.42466,-4.2168 0,-1.95957 -0.92397,-3.47265 -2.42466,-4.21679 M 121.53367,113.66145 c -0.21702,1.079 -1.12241,1.85415 -2.32543,1.85415 -1.20303,0 -2.1022,-0.77515 -2.32545,-1.85415 -1.50068,0.74413 -2.42465,2.25722 -2.42465,4.21679 0,1.95957 0.92397,3.47266 2.42465,4.2168 0.22326,-1.079 1.12242,-1.85415 2.32545,-1.85415 1.20302,0 2.10839,0.77515 2.32543,1.85415 1.51309,-0.74414 2.43086,-2.25723 2.43086,-4.2168 0,-1.95957 -0.91777,-3.47266 -2.43086,-4.21679 m 118.77104,0 c -0.22326,1.079 -1.12861,1.85415 -2.33163,1.85415 -1.20303,0 -2.1022,-0.77515 -2.31924,-1.85415 -1.51309,0.74413 -2.43086,2.25722 -2.43086,4.21679 0,1.95957 0.91777,3.47266 2.43086,4.2168 0.21702,-1.079 1.11621,-1.85415 2.31924,-1.85415 1.20302,0 2.10839,0.77515 2.33163,1.85415 1.50069,-0.74414 2.42466,-2.25723 2.42466,-4.2168 0,-1.95957 -0.92397,-3.47266 -2.42466,-4.21679" id="path24"/>
    </g>
  </g>
</svg>
